<svg xmlns="http://www.w3.org/2000/svg" xmlns:xlink="http://www.w3.org/1999/xlink" width="180" height="22" viewBox="0 0 180 22">
    <defs>
        <path id="a" d="M0 21.108h179.935V0H0z"/>
        <path id="c" d="M0 21.108h179.935V0H0z"/>
        <path id="e" d="M0 21.108h179.935V0H0z"/>
    </defs>
    <g fill="none" fill-rule="evenodd">
        <path fill="#4E4E4E" fill-rule="nonzero" d="M103.338 15.475c2.072 0 3.237-1.748 3.237-3.756 0-2.006-1.165-3.755-3.237-3.755s-3.237 1.749-3.237 3.755c0 2.008 1.165 3.756 3.237 3.756zm0 2.137c-3.561 0-5.762-2.655-5.762-5.893 0-3.237 2.2-5.891 5.762-5.891 3.627 0 5.827 2.654 5.827 5.891 0 3.238-2.2 5.893-5.827 5.893zm-7.446-.26V9.453c0-2.33-1.23-3.625-3.626-3.625-1.748 0-3.237.906-3.95 1.812V6.086h-2.46v11.266h2.46V9.518c.583-.777 1.62-1.49 2.914-1.49 1.36 0 2.266.583 2.266 2.332v7.057h2.396v-.065zm-17.547-1.877c2.072 0 3.238-1.748 3.238-3.756 0-2.006-1.166-3.755-3.238-3.755s-3.237 1.749-3.237 3.755c0 2.008 1.165 3.756 3.237 3.756zm0 2.137c-3.561 0-5.762-2.655-5.762-5.893 0-3.237 2.201-5.891 5.762-5.891 3.626 0 5.828 2.654 5.828 5.891 0 3.238-2.202 5.893-5.828 5.893zm-9.971-.26v-7.64c.518-.777 1.878-1.49 2.914-1.49.323 0 .582 0 .777.066V5.892c-1.49 0-2.85.842-3.691 1.942V6.151h-2.46v11.266h2.46v-.065zm-4.791 0V9.39c0-2.332-1.23-3.561-3.626-3.561-1.748 0-3.238.906-4.015 1.812V1.813h-2.46v15.54h2.46V9.517c.583-.777 1.684-1.49 2.914-1.49 1.36 0 2.266.519 2.266 2.267v7.057h2.46l.001.001zm-17.677.26c3.173 0 5.05-1.619 6.216-3.497l-2.33-1.165c-.778 1.295-2.267 2.266-3.886 2.266-3.108 0-5.374-2.331-5.374-5.634 0-3.302 2.266-5.633 5.374-5.633 1.684 0 3.173.972 3.885 2.267l2.331-1.166c-1.165-1.878-3.108-3.496-6.216-3.496-4.597 0-8.158 3.237-8.158 8.028 0 4.792 3.561 8.03 8.158 8.03zm67.404-3.627c.517.842 1.748 1.49 2.913 1.49 1.943 0 3.172-1.554 3.172-3.756 0-2.201-1.23-3.755-3.172-3.755-1.165 0-2.331.712-2.914 1.554v4.467h.001zm0 3.367h-2.46V1.812h2.46V7.64c.905-1.165 2.2-1.813 3.625-1.813 2.914 0 4.986 2.266 4.986 5.892 0 3.69-2.137 5.893-4.986 5.893-1.489 0-2.72-.713-3.626-1.814v1.554h.001zm14.503-1.424c1.1 0 2.137-.389 2.655-1.166V13.08c-.583-.778-1.619-1.166-2.655-1.166-1.36 0-2.395.777-2.395 2.007s1.035 2.007 2.395 2.007zm5.115 1.424h-2.46v-1.23c-.842.971-2.137 1.49-3.627 1.49-1.812 0-3.884-1.23-3.884-3.756 0-2.59 2.072-3.69 3.884-3.69 1.49 0 2.85.517 3.627 1.424V9.906c0-1.295-1.101-2.072-2.655-2.072-1.23 0-2.331.454-3.302 1.425l-.972-1.684c1.295-1.23 2.914-1.813 4.727-1.813 2.526 0 4.662 1.036 4.662 4.08v7.51zm12.432.001v-7.9c0-2.33-1.23-3.626-3.627-3.626-1.747 0-3.237.907-3.949 1.813V6.086h-2.46v11.267h2.46V9.518c.583-.777 1.619-1.49 2.914-1.49 1.359 0 2.266.584 2.266 2.332v7.057h2.396v-.064zm12.95 0l-4.792-6.152 4.726-5.115h-3.042l-4.986 5.44V1.812h-2.46v15.54h2.46v-3.044l1.553-1.618 3.497 4.662 3.044.001zm2.2.259c.907 0 1.62-.777 1.62-1.619s-.777-1.619-1.62-1.619c-.841 0-1.618.777-1.618 1.62 0 .84.713 1.618 1.619 1.618h-.001zm4.922-12.885c.842 0 1.489-.648 1.489-1.49 0-.841-.647-1.489-1.49-1.489-.84 0-1.488.648-1.488 1.49 0 .841.647 1.489 1.489 1.489z"/>
        <g>
            <mask id="b" fill="#fff">
                <use xlink:href="#a"/>
            </mask>
            <path fill="#4E4E4E" fill-rule="nonzero" d="M164.201 17.353h2.46V6.086h-2.46v11.267zm9.907-1.878c2.072 0 3.237-1.748 3.237-3.756 0-2.006-1.165-3.755-3.237-3.755s-3.238 1.749-3.238 3.755c0 2.008 1.166 3.756 3.238 3.756zm0 2.137c-3.561 0-5.762-2.655-5.762-5.893 0-3.237 2.2-5.891 5.762-5.891 3.626 0 5.827 2.654 5.827 5.891 0 3.238-2.2 5.893-5.827 5.893zM29.201 0H2.137A2.156 2.156 0 0 0 0 2.137V18.97c0 1.166.971 2.137 2.137 2.137H29.2a2.156 2.156 0 0 0 2.137-2.137V2.137A2.156 2.156 0 0 0 29.201 0zM1.424 2.137c0-.389.324-.712.713-.712h2.072c-.26 1.36-1.36 2.46-2.785 2.719V2.137zm.713 17.546a.718.718 0 0 1-.713-.712v-2.007c1.425.26 2.46 1.36 2.785 2.719H2.137zm27.777-.712a.718.718 0 0 1-.713.712H27.13c.26-1.36 1.36-2.46 2.785-2.719v2.007h-.001zm0-3.431c-2.202.323-3.885 2.007-4.21 4.143H5.634c-.324-2.136-2.007-3.82-4.209-4.143V5.568c2.202-.323 3.885-2.007 4.209-4.143h20.072c.324 2.136 2.007 3.82 4.209 4.143v9.972h-.001zm0-11.396c-1.425-.259-2.526-1.36-2.785-2.72h2.072a.72.72 0 0 1 .713.713v2.007z" mask="url(#b)"/>
        </g>
        <g>
            <mask id="d" fill="#fff">
                <use xlink:href="#c"/>
            </mask>
            <path fill="#4E4E4E" fill-rule="nonzero" d="M15.734 4.856c3.172 0 5.827 2.59 5.827 5.763 0 3.172-2.59 5.762-5.827 5.762-3.238 0-5.828-2.59-5.828-5.762.065-3.173 2.655-5.763 5.828-5.763m0-1.23c-3.885 0-7.058 3.108-7.058 6.993 0 3.884 3.173 6.993 7.058 6.993s7.057-3.109 7.057-6.993c0-3.885-3.108-6.993-7.057-6.993" mask="url(#d)"/>
        </g>
        <g>
            <mask id="f" fill="#fff">
                <use xlink:href="#e"/>
            </mask>
            <path fill="#FFF" fill-rule="nonzero" d="M18.453 10.49h-2.395V7.77a.649.649 0 0 0-.648-.648.649.649 0 0 0-.647.648v3.238c0 .323.259.647.647.647h3.043c.358 0 .647-.29.648-.648 0-.259-.26-.518-.648-.518" mask="url(#f)"/>
        </g>
    </g>
</svg>
