<svg xmlns="http://www.w3.org/2000/svg" width="93" height="26" viewBox="0 0 93 26">
    <g fill="#FFF" fill-rule="evenodd">
        <path d="M82.79 5.84c-1.003.24-2.008 1.04-2 2.152-.013 3.406-.005 6.814-.005 10.22-.043.78.456 1.492 1.132 1.84 1.207.633 2.751.612 3.926-.084.607-.357 1.046-1.018 1.016-1.737.005-3.36.002-6.719.002-10.078a2.073 2.073 0 0 0-.837-1.749c-.912-.677-2.146-.856-3.235-.565M81.931.306c1.876-.247 3.833-.18 5.627.467 1.85.638 3.574 1.86 4.492 3.624.559 1.042.808 2.23.815 3.408.005 3.298-.002 6.597.004 9.895.026 1.148-.094 2.316-.548 3.38-.71 1.758-2.219 3.09-3.926 3.85-2.65 1.179-5.76 1.26-8.48.265-1.606-.594-3.104-1.617-4.04-3.073-.75-1.15-1.097-2.534-1.094-3.9-.005-3.349.002-6.697-.003-10.046-.023-1.182.154-2.385.664-3.46 1.157-2.522 3.84-3.983 6.49-4.41M0 .466C6.786.459 13.572.478 20.36.456c-2.385.556-4.734 1.797-6.091 3.9-.837 1.275-1.252 2.81-1.236 4.333-.009 2.771-.002 5.545-.004 8.316-.036 1.344.203 2.706.815 3.91 1.227 2.481 3.796 4.005 6.417 4.625-4.54-.015-9.08-.003-13.619-.007V6.473H0V.467zM40.097 6.406v6.188c1.267-.007 2.534.012 3.801-.007.782-.007 1.56-.359 2.042-.981.91-1.172.924-2.952.052-4.148-.482-.662-1.288-1.045-2.1-1.047-1.266-.019-2.531.002-3.795-.005M26.551.492c4.916.02 9.833.003 14.75.009 1.916.019 3.889-.14 5.735.487a8.225 8.225 0 0 1 4.9 4.167c1.395 2.757 1.296 6.219-.274 8.885a8.226 8.226 0 0 1-4.6 3.681c-2.247.75-4.644.418-6.965.492v7.32c-4.508.006-9.015-.012-13.523.009 2.362-.57 4.67-1.837 5.999-3.931.821-1.262 1.21-2.774 1.208-4.271.014-2.715.002-5.429.007-8.142.026-1.367-.165-2.76-.782-3.995C31.798 2.676 29.2 1.125 26.551.492M57.323 15.102V.5H72.16v5.55h-9.785c-.002.944 0 1.885 0 2.828 2.153-.782 4.62-.898 6.736.066 2.185.955 3.797 3.007 4.35 5.31.635 2.621.2 5.514-1.265 7.788-1.121 1.732-2.93 2.97-4.92 3.477-2.145.548-4.502.534-6.542-.398-1.79-.79-3.238-2.214-4.261-3.864 1.492-1.177 2.988-2.35 4.479-3.53.88 1.036 2.172 1.785 3.564 1.743 1.294.005 2.641-.82 2.957-2.127.275-1.265.041-2.794-1.025-3.643-1.014-.796-2.426-.813-3.619-.473-1.062.298-1.946 1.019-2.617 1.873-.962.002-1.926.002-2.888.002"/>
        <path d="M22.797 8.921c-1.207.404-1.468 2.201-.428 2.935.96.82 2.62.137 2.731-1.12.215-1.226-1.157-2.321-2.303-1.815m-3.531 5.916c-.775-3.77.796-8.027 4.158-10.036 3.346 2.049 4.932 6.306 4.115 10.09.305.353.605.714.902 1.076-.54 1.732-.976 3.501-1.63 5.195-.535-.524-1.135-.983-1.823-1.291l-.103.447c-.988.005-1.976.008-2.962-.004-.028-.128-.085-.386-.112-.515-.652.297-1.198.758-1.739 1.217-.236-.043-.236-.324-.32-.499-.463-1.527-.914-3.056-1.39-4.578.287-.38.59-.745.904-1.102"/>
        <path d="M24.556 21.008c.138-.058.285-.094.43-.136.014.713.068 1.43-.023 2.14-.105.032-.312.1-.415.133-.02-.713-.067-1.427.008-2.137M21.876 20.936l.404-.005c.076.746.037 1.498 0 2.245l-.385-.17c-.11-.685-.074-1.383-.019-2.07M23.245 20.949l.409-.013c.048 1.141.083 2.292-.017 3.429l-.39.179c-.046-1.198-.074-2.4-.002-3.595"/>
    </g>
</svg>
