<svg xmlns="http://www.w3.org/2000/svg" xmlns:xlink="http://www.w3.org/1999/xlink" width="18" height="19" viewBox="0 0 18 19">
    <defs>
        <path id="a" d="M0 18.982V0h17.53v18.982z"/>
    </defs>
    <g fill="none" fill-rule="evenodd" opacity=".3">
        <mask id="b" fill="#fff">
            <use xlink:href="#a"/>
        </mask>
        <path fill="#202326" d="M16.372 11.941c-.61 0-.91-.464-.91-1.391V6.72h.924c.166 0 .316-.01.503.004s.262.005.357.005V4.745h-1.784v-.882c0-.333.052-.636.094-.826h-2.41c.042.19.038.48.038.867v.841H12.14V6.73c.285-.042.54-.063.72-.063l.324.021v3.759c0 1.163.148 2.014.438 2.554.388.72 1.068 1.08 2.079 1.08.72 0 1.355-.138 1.83-.415v-2.077c-.38.236-.73.353-1.16.353m-5.175-7.196H8.85c.028.266-.012.668-.012 1.319v6.459c0 .664.04 1.2.012 1.41h2.347c-.028-.304-.1-.829-.1-1.535V6.023c0-.61.072-1.012.1-1.278M10.033 0c-.401 0-.744.152-1.028.457a1.557 1.557 0 0 0-.426 1.1c0 .416.142.776.426 1.08.284.305.626.457 1.028.457.388 0 .723-.152 1.007-.457.284-.304.426-.664.426-1.08 0-.429-.142-.795-.426-1.1C10.756.152 10.42 0 10.033 0M3.719 9.49c-.872 0-1.309-.477-1.309-1.432 0-1.025.437-1.537 1.309-1.537.415 0 .74.16.976.478.194.29.29.636.29 1.038 0 .969-.422 1.454-1.266 1.454m.145 5.482c1.163 0 1.745.353 1.745 1.06 0 .747-.533 1.12-1.6 1.12-1.218 0-1.827-.36-1.827-1.079 0-.734.56-1.1 1.682-1.1M3.636 4.61c-.942 0-1.752.312-2.43.935C.5 6.21.146 7.04.146 8.037c0 .665.193 1.288.581 1.869.346.54.708.886 1.182 1.039v.041c-.474.194-.685.678-.685 1.454 0 .595.21 1.038.685 1.329v.041C.6 14.24 0 15.036 0 16.2c0 1.01.44 1.751 1.299 2.222.678.374 1.549.56 2.601.56 2.562 0 3.845-1.073 3.845-3.219 0-1.343-.988-2.166-2.968-2.47-.457-.07-.803-.236-1.038-.5-.18-.18-.27-.36-.27-.54 0-.511.278-.81.831-.892a3.166 3.166 0 0 0 2.067-1.174c.533-.657.8-1.43.8-2.315 0-.277-.084-.575-.195-.893.36-.083.613-.16.802-.229V4.61c-.835.333-1.612.499-2.277.499a3.643 3.643 0 0 0-1.861-.499" mask="url(#b)"/>
    </g>
</svg>
