<svg xmlns="http://www.w3.org/2000/svg" width="32" height="32" viewBox="0 0 32 32">
    <g fill="#202326" fill-rule="evenodd">
        <path d="M9.6 22.4h19.2V3.2H9.6v19.2zM30.4 0H8a1.6 1.6 0 0 0-1.6 1.6V24A1.6 1.6 0 0 0 8 25.6h22.4A1.6 1.6 0 0 0 32 24V1.6A1.6 1.6 0 0 0 30.4 0z"/>
        <path d="M3.2 6.4H0v24A1.6 1.6 0 0 0 1.6 32h24v-3.2H3.2V6.4z"/>
        <path d="M24 19.2V6.4a1.6 1.6 0 0 0-1.6-1.6h-8V8h6.4v3.2h-6.4v3.2h6.4v3.2h-6.4v3.2h8a1.6 1.6 0 0 0 1.6-1.6"/>
    </g>
</svg>
