<svg xmlns="http://www.w3.org/2000/svg" xmlns:xlink="http://www.w3.org/1999/xlink" width="136" height="38" viewBox="0 0 136 38">
    <defs>
        <path id="a" d="M.292.418h26.449v37.578H.292z"/>
    </defs>
    <g fill="none" fill-rule="evenodd">
        <path fill="#FFF" d="M33.57 12.78c1.671-.752 3.673.875 3.358 2.698-.161 1.866-2.583 2.88-3.983 1.663-1.516-1.09-1.135-3.762.625-4.362v.001zM58.8 9.043c1.842.01 3.687-.02 5.533.008 1.185.002 2.361.571 3.063 1.556 1.273 1.777 1.252 4.422-.075 6.163-.703.925-1.838 1.448-2.978 1.458-1.848.028-3.696 0-5.543.01V9.043zm62.26-.843c1.586-.433 3.387-.168 4.717.84a3.104 3.104 0 0 1 1.22 2.599c0 4.991.006 9.983-.002 14.974.042 1.07-.596 2.05-1.481 2.582-1.714 1.035-3.966 1.067-5.725.126-.988-.518-1.715-1.576-1.652-2.735 0-5.062-.012-10.125.008-15.186-.013-1.651 1.453-2.842 2.914-3.2z"/>
        <g transform="translate(109)">
            <mask id="b" fill="#fff">
                <use xlink:href="#a"/>
            </mask>
            <path fill="#1F1A17" d="M10.751.612c2.74-.362 5.602-.263 8.224.682 2.705.932 5.223 2.718 6.566 5.297.816 1.523 1.18 3.258 1.19 4.981.008 4.821-.001 9.642.005 14.463.039 1.677-.136 3.385-.8 4.94-1.035 2.57-3.243 4.515-5.738 5.627-3.874 1.723-8.42 1.843-12.393.388-2.35-.869-4.538-2.364-5.906-4.492-1.097-1.68-1.604-3.704-1.6-5.7-.006-4.894.004-9.789-.004-14.684-.032-1.728.226-3.486.97-5.057C2.958 3.371 6.88 1.235 10.751.612M12.005 8.7c-1.465.352-2.934 1.523-2.921 3.147-.02 4.978-.008 9.958-.008 14.937-.063 1.14.666 2.181 1.655 2.69 1.763.926 4.02.894 5.738-.124.887-.522 1.527-1.487 1.484-2.538.008-4.909.003-9.82.003-14.73a3.033 3.033 0 0 0-1.223-2.556c-1.333-.99-3.137-1.252-4.728-.826" mask="url(#b)"/>
        </g>
        <path fill="#1F1A17" d="M0 .016C10 .006 19.998.034 30 0c-3.514.82-6.976 2.651-8.975 5.752-1.233 1.882-1.845 4.145-1.821 6.392-.013 4.087-.002 8.179-.005 12.266-.054 1.982.3 3.99 1.2 5.768 1.808 3.66 5.594 5.907 9.455 6.822-6.688-.023-13.378-.005-20.067-.01V8.878H0V.016zM83.991 21.288V.012h21.692v8.087H91.377c-.003 1.375 0 2.745 0 4.119 3.147-1.138 6.754-1.308 9.848.097 3.195 1.391 5.552 4.381 6.361 7.738.927 3.818.29 8.033-1.85 11.347-1.641 2.522-4.283 4.326-7.195 5.067-3.135.796-6.582.777-9.565-.582-2.615-1.152-4.734-3.226-6.228-5.63 2.18-1.715 4.368-3.424 6.548-5.143 1.287 1.51 3.176 2.6 5.21 2.54 1.893.008 3.862-1.194 4.324-3.1.402-1.843.06-4.07-1.498-5.308-1.483-1.158-3.548-1.184-5.292-.689-1.554.435-2.846 1.485-3.826 2.73-1.407.003-2.816.003-4.223.003M39 0c7.187.03 14.377.005 21.564.013 2.803.027 5.687-.205 8.387.71a12.01 12.01 0 0 1 7.164 6.07c2.04 4.018 1.895 9.063-.4 12.946a12.013 12.013 0 0 1-6.727 5.364c-3.284 1.094-6.79.609-10.182.718v10.665c-6.593.008-13.182-.016-19.773.013 3.455-.83 6.827-2.677 8.771-5.728 1.201-1.838 1.77-4.04 1.767-6.222.02-3.955.003-7.912.01-11.863.038-1.992-.24-4.024-1.143-5.822C46.672 3.182 42.872.922 39 0m19.806 8.617v9.015c1.852-.009 3.705.02 5.558-.009 1.142-.01 2.28-.522 2.985-1.43 1.33-1.706 1.351-4.3.076-6.043-.705-.965-1.884-1.523-3.071-1.525-1.851-.028-3.7.002-5.548-.008"/>
        <path fill="#1F1A17" d="M28.343 21.722C27.19 16.192 29.528 9.948 34.533 7c4.98 3.006 7.34 9.25 6.126 14.8.453.52.899 1.048 1.341 1.58-.802 2.54-1.453 5.137-2.426 7.62-.797-.768-1.69-1.44-2.714-1.894-.036.165-.113.492-.152.657-1.471.008-2.942.012-4.41-.006l-.166-.755c-.972.435-1.784 1.11-2.588 1.784-.351-.062-.351-.473-.478-.731-.69-2.24-1.36-4.484-2.066-6.716a27.99 27.99 0 0 1 1.343-1.617m5.256-8.677c-1.796.591-2.185 3.228-.637 4.305 1.429 1.2 3.9.2 4.065-1.643.321-1.799-1.722-3.406-3.428-2.662"/>
        <path fill="#1F1A17" d="M32.079 30.085l.6-.007c.112.97.055 1.95 0 2.922-.191-.074-.382-.148-.574-.22-.162-.893-.109-1.803-.027-2.695m4.247.092c.203-.075.42-.122.634-.177.02.928.099 1.862-.036 2.786-.154.043-.458.132-.61.175-.03-.929-.098-1.858.012-2.784M34.06 30.018l.562-.018c.065 1.58.114 3.178-.024 4.753-.13.062-.4.183-.534.247-.064-1.66-.102-3.324-.003-4.982"/>
    </g>
</svg>
