<svg xmlns="http://www.w3.org/2000/svg" width="380" height="74" viewBox="0 0 380 74">
    <g fill="none" fill-rule="evenodd">
        <path fill="#10CCFF" d="M21.187 22.813h7.187l7.967 12.81 7.968-12.81h7.187v30.293H44.87V33.328l-8.53 12.94h-.173l-8.443-12.81v19.648h-6.538zM84.278 22.813h22.862v5.928H90.903v6.145h14.289v5.93h-14.29v6.361h16.455v5.929H84.278zM131.676 47.09c5.456 0 9.136-3.678 9.136-9.131 0-5.366-3.68-9.131-9.136-9.131h-5.153V47.09h5.153zm-11.82-24.277h11.82c9.526 0 16.107 6.534 16.107 15.146 0 8.526-6.581 15.147-16.107 15.147h-11.82V22.813zM156.666 53.106h6.668V22.813h-6.668zM192.72 40.426l-4.027-9.824-4.026 9.824h8.053zm-7.014-17.83h6.148l12.989 30.51h-6.97L195.1 46.31h-12.816l-2.77 6.795h-6.799l12.99-30.51zM217.624 28.958H208.4v-6.145h25.113v6.145h-9.222v24.148h-6.668zM265.107 37.959c0-5.193-3.81-9.52-9.179-9.52-5.368 0-9.093 4.24-9.093 9.52 0 5.193 3.81 9.521 9.18 9.521 5.369 0 9.092-4.241 9.092-9.521m-25.242 0c0-8.612 6.798-15.666 16.15-15.666 9.352 0 16.064 6.968 16.064 15.666 0 8.612-6.798 15.666-16.15 15.666-9.353 0-16.064-6.967-16.064-15.666M281.264 22.813h6.668v13.242l12.297-13.242h8.054l-12.34 12.852 12.903 17.44h-8.01L291.44 40.21l-3.508 3.636v9.26h-6.668zM318.356 22.813h22.862v5.928H324.98v6.145h14.289v5.93h-14.29v6.361h16.455v5.929h-23.079zM352.31 22.813h6.148l14.203 18.651V22.813h6.58v30.293h-5.672l-14.677-19.258v19.258h-6.582z"/>
        <path fill="#202326" d="M88.186 67.278c1.208 0 1.962-.675 1.962-1.65 0-1.064-.767-1.622-1.962-1.622h-1.858v3.272h1.858zm-3.455-4.726h3.585c2.117 0 3.455 1.207 3.455 3.064 0 2.038-1.636 3.103-3.637 3.103h-1.806v2.921h-1.597v-9.088zM98.48 68.226c0-1.208-.87-2.207-2.104-2.207-1.26 0-2.066.986-2.066 2.207 0 1.194.87 2.207 2.092 2.207 1.273 0 2.078-1 2.078-2.207m-5.741 0c0-1.96 1.558-3.584 3.663-3.584 2.104 0 3.65 1.597 3.65 3.584 0 1.948-1.56 3.57-3.676 3.57-2.092 0-3.637-1.597-3.637-3.57M100.725 64.785h1.611l1.377 4.7 1.52-4.726h1.338l1.533 4.726 1.403-4.7h1.571l-2.247 6.907h-1.403l-1.532-4.687-1.546 4.687h-1.404zM116.884 67.732c-.103-1.012-.701-1.804-1.74-1.804-.961 0-1.637.74-1.78 1.804h3.52zm-5.079.48c0-1.96 1.39-3.57 3.352-3.57 2.182 0 3.286 1.714 3.286 3.687 0 .104-.013.364-.026.442h-5.04c.169 1.116.961 1.74 1.975 1.74.766 0 1.311-.286 1.858-.818l.922.818c-.65.779-1.547 1.285-2.806 1.285-1.988 0-3.521-1.44-3.521-3.583zM120.005 64.785h1.572v1.545c.429-1.026 1.22-1.727 2.43-1.675v1.662h-.092c-1.376 0-2.338.896-2.338 2.714v2.61h-1.572v-6.856zM129.92 67.732c-.103-1.012-.701-1.804-1.74-1.804-.962 0-1.637.74-1.78 1.804h3.52zm-5.08.48c0-1.96 1.391-3.57 3.352-3.57 2.183 0 3.287 1.714 3.287 3.687 0 .104-.013.364-.026.442h-5.04c.169 1.116.961 1.74 1.974 1.74.767 0 1.312-.286 1.858-.818l.922.818c-.65.779-1.546 1.285-2.806 1.285-1.988 0-3.52-1.44-3.52-3.583zM138.226 68.2c0-1.324-.935-2.195-1.987-2.195-1.078 0-1.974.831-1.974 2.22 0 1.325.908 2.195 1.974 2.195 1.052 0 1.987-.883 1.987-2.22m-5.547 0c0-2.272 1.546-3.558 3.183-3.558 1.13 0 1.845.571 2.338 1.207v-3.687h1.572v9.478H138.2v-1.142c-.506.714-1.22 1.285-2.338 1.285-1.61 0-3.183-1.285-3.183-3.583M151.124 68.2c0-1.324-.896-2.195-1.961-2.195s-2 .883-2 2.22c0 1.325.935 2.195 2 2.195 1.078 0 1.961-.844 1.961-2.22m-3.923 2.376v1.064h-1.571v-9.478h1.571v3.766c.507-.715 1.221-1.286 2.325-1.286 1.625 0 3.196 1.286 3.196 3.584 0 2.272-1.559 3.557-3.196 3.557-1.13 0-1.844-.571-2.325-1.207M153.702 73.341l.533-1.168c.286.156.597.259.922.259.442 0 .715-.194.974-.792l-2.858-6.855h1.677l1.947 5.09 1.78-5.09h1.637l-2.728 7.05c-.545 1.402-1.156 1.922-2.26 1.922a3.21 3.21 0 0 1-1.624-.416M169.965 70.225c1.091 0 1.754-.428 1.754-1.273 0-.766-.61-1.22-1.87-1.22h-2.534v2.493h2.65zm-.468-3.843c1.027 0 1.715-.403 1.715-1.26 0-.714-.572-1.155-1.598-1.155h-2.299v2.415h2.182zm-3.754-3.83h4.08c1.038 0 1.857.286 2.376.805.403.402.611.896.611 1.532 0 1.09-.624 1.675-1.3 2.026 1.066.363 1.806.973 1.806 2.233 0 1.622-1.337 2.492-3.364 2.492h-4.209v-9.089zM180.446 68.03l-1.572-3.635-1.559 3.636h3.13zm-2.287-5.543h1.481l4.001 9.153h-1.689l-.922-2.194h-4.3l-.935 2.194h-1.637l4.001-9.153zM185.129 62.552h1.48l4.872 6.284v-6.284h1.572v9.088h-1.338l-5.014-6.465v6.465h-1.572zM195.473 62.552h1.598v4.57l4.326-4.57h1.961l-3.78 3.908 3.95 5.18h-1.936l-3.105-4.09-1.416 1.455v2.635h-1.598zM204.92 62.552h6.742v1.428h-5.144v2.363h4.56v1.428h-4.56v2.44h5.21v1.43h-6.808zM216.35 67.018l-3.183-4.466h1.884l2.26 3.259 2.274-3.26h1.83l-3.169 4.441 3.3 4.648h-1.884l-2.39-3.44-2.403 3.44h-1.832zM39.047 67.809v-9.462h-5.334v9.462C17.839 66.452 5.335 53.113 5.335 36.902S17.839 7.352 33.713 5.995v9.462h5.334V5.995C54.92 7.352 67.425 20.691 67.425 36.902S54.92 66.452 39.047 67.809M36.379.54C16.288.54 0 16.82 0 36.9c0 20.083 16.288 36.362 36.38 36.362 20.091 0 36.38-16.28 36.38-36.361C72.76 16.82 56.47.54 36.38.54"/>
    </g>
</svg>
