<svg xmlns="http://www.w3.org/2000/svg" width="32" height="10" viewBox="0 0 32 10">
    <g fill="#10CCFF" fill-rule="evenodd">
        <path d="M27.332 0l-1.414 1.414 2.292 2.293h-6.585v2h6.585L25.918 8l1.414 1.414 4.707-4.707zM4 4.707a2 2 0 1 1-3.999.001A2 2 0 0 1 4 4.707M11 4.707a2 2 0 1 1-3.999.001A2 2 0 0 1 11 4.707M18 4.707a2 2 0 1 1-3.999.001A2 2 0 0 1 18 4.707"/>
    </g>
</svg>
