<svg xmlns="http://www.w3.org/2000/svg" xmlns:xlink="http://www.w3.org/1999/xlink" width="110" height="72" viewBox="0 0 110 72">
    <defs>
        <path id="a" d="M54.669 71.681h54.67V.284H0V71.68z"/>
    </defs>
    <g fill="none" fill-rule="evenodd">
        <g transform="translate(0 .035)">
            <mask id="b" fill="#fff">
                <use xlink:href="#a"/>
            </mask>
            <path fill="#1B324F" d="M102.641 21.033v15.649a.787.787 0 0 1-.786.787h-.609a.787.787 0 0 1-.787-.787v-15.65c0-.434.353-.786.787-.786h.602a.787.787 0 0 1 .79.784v.003h.003zM7.815 31.113a2.256 2.256 0 1 1 2.255-2.256 2.259 2.259 0 0 1-2.258 2.256h.003zm0-6.407a4.141 4.141 0 1 0 0 8.283 4.141 4.141 0 0 0 0-8.283h-.003.003zm99.63 24.754c0 3.352-3.185 6.076-7.088 6.076h-4.326V2.179h4.323c3.909 0 7.089 2.727 7.089 6.076l.003 41.205zM94.136 61.37a3.256 3.256 0 0 1-3.256 3.253H76.734V63.55a16.472 16.472 0 0 0-5.154-11.953c.69-.366 1.42-.649 2.175-.844a8.64 8.64 0 0 0 12.808 0 10.093 10.093 0 0 1 7.572 9.755v.86zm-19.297 3.428a5.001 5.001 0 0 1-4.995 4.995H39.495a5.002 5.002 0 0 1-4.995-4.995V63.55a14.655 14.655 0 0 1 12.743-14.515 11.839 11.839 0 0 0 14.833 0A14.674 14.674 0 0 1 74.82 63.561l.018 1.236zm-59.632-3.428v-.88a10.086 10.086 0 0 1 7.576-9.751 8.64 8.64 0 0 0 12.8 0c.753.195 1.48.478 2.167.84a16.494 16.494 0 0 0-5.145 11.973v1.07H18.459a3.256 3.256 0 0 1-3.256-3.249l.003-.003zM1.896 49.46V8.27A6.082 6.082 0 0 1 7.97 2.195h5.757v53.344H7.97a6.082 6.082 0 0 1-6.075-6.079zm20.5-4.552a6.789 6.789 0 1 1 6.805 6.773h-.019a6.795 6.795 0 0 1-6.786-6.773zm22.276-5.14c-.007-5.519 4.462-9.999 9.981-10.006 5.52-.007 10 4.462 10.007 9.981.007 5.52-4.462 10-9.981 10.007h-.01c-5.52-.005-9.992-4.478-9.997-9.997v.016zm28.695 5.14a6.789 6.789 0 1 1 6.805 6.773h-.016a6.795 6.795 0 0 1-6.79-6.773zM94.132 2.195v51.853a12.043 12.043 0 0 0-6.394-4.938 8.685 8.685 0 1 0-15.174 0c-.887.295-1.735.692-2.53 1.185a16.505 16.505 0 0 0-6.285-2.867c4.236-5.02 3.6-12.523-1.42-16.76-5.02-4.235-12.523-3.6-16.759 1.42a11.892 11.892 0 0 0 0 15.34c-2.27.502-4.41 1.48-6.276 2.867-.792-.49-1.639-.885-2.523-1.179a8.685 8.685 0 1 0-15.177 0 12.017 12.017 0 0 0-5.97 4.33V2.179l78.508.016zm6.222-1.911H7.964A7.98 7.98 0 0 0 0 8.248V49.46a7.98 7.98 0 0 0 7.965 7.965h5.734a11.945 11.945 0 0 0-.398 3.055v.88a5.158 5.158 0 0 0 5.151 5.15h14.372a6.9 6.9 0 0 0 6.668 5.171h30.345a6.9 6.9 0 0 0 6.668-5.17h14.371a5.158 5.158 0 0 0 5.152-5.152v-.879c0-1.031-.132-2.058-.395-3.055h4.721c4.954 0 8.984-3.578 8.984-7.965V8.27c0-4.412-4.014-7.986-8.984-7.986z" mask="url(#b)"/>
        </g>
        <path fill="#33A0E2" d="M94.132 2.232v51.852a12.041 12.041 0 0 0-6.394-4.938 8.685 8.685 0 1 0-15.174 0c-.887.295-1.735.693-2.53 1.186a16.505 16.505 0 0 0-6.285-2.868c4.236-5.02 3.6-12.523-1.42-16.759-5.02-4.235-12.523-3.6-16.759 1.42a11.892 11.892 0 0 0 0 15.34c-2.27.502-4.41 1.48-6.276 2.867-.792-.49-1.639-.886-2.523-1.18a8.684 8.684 0 0 0-3.366-11.81 8.684 8.684 0 0 0-11.811 11.81 12.017 12.017 0 0 0-5.97 4.33V2.216l78.508.016z"/>
        <path fill="#0DFFA8" d="M73.367 44.944a6.788 6.788 0 0 1 6.773-6.804 6.788 6.788 0 1 1 .031 13.577h-.015a6.795 6.795 0 0 1-6.79-6.773"/>
        <path fill="#F4DE14" d="M44.672 39.805c-.007-5.519 4.462-10 9.981-10.006 5.52-.007 10 4.462 10.007 9.981.007 5.52-4.462 10-9.981 10.007h-.01c-5.52-.006-9.992-4.479-9.997-9.997v.015z"/>
        <path fill="#DD0BC5" d="M22.397 44.944a6.788 6.788 0 0 1 6.773-6.804 6.789 6.789 0 1 1 .031 13.577h-.019a6.795 6.795 0 0 1-6.785-6.773"/>
        <path fill="#5617CE" d="M15.206 61.405v-.879a10.087 10.087 0 0 1 7.576-9.752 8.64 8.64 0 0 0 12.8 0c.753.196 1.48.478 2.167.842a16.493 16.493 0 0 0-5.145 11.972v1.07H18.459a3.256 3.256 0 0 1-3.256-3.25l.003-.003z"/>
        <path fill="#F9880D" d="M74.838 64.833a5.002 5.002 0 0 1-4.995 4.996H39.495a5.003 5.003 0 0 1-4.996-4.996v-1.245a14.655 14.655 0 0 1 12.744-14.515 11.838 11.838 0 0 0 14.833 0 14.674 14.674 0 0 1 12.743 14.524l.02 1.236z"/>
        <path fill="#1CB51C" d="M94.135 61.405a3.256 3.256 0 0 1-3.256 3.253H76.734v-1.07a16.47 16.47 0 0 0-5.155-11.954c.69-.365 1.42-.648 2.176-.843a8.64 8.64 0 0 0 12.807 0 10.092 10.092 0 0 1 7.573 9.754v.86z"/>
    </g>
</svg>
